<svg width="95" height="38" viewBox="0 0 95 38" fill="none" xmlns="http://www.w3.org/2000/svg">
<g clip-path="url(#clip0_488_3262)">
<path d="M9.68945 26.48C9.68945 27.632 9.96145 28.64 10.5055 29.504C11.0495 30.368 11.8015 31.04 12.7615 31.52C13.7215 32 14.8015 32.24 16.0015 32.24C17.2015 32.24 18.2735 32 19.2175 31.52C20.1775 31.04 20.9295 30.368 21.4735 29.504C22.0335 28.64 22.3135 27.632 22.3135 26.48C22.3135 25.312 22.0335 24.296 21.4735 23.432C20.9295 22.568 20.1775 21.896 19.2175 21.416C18.2735 20.936 17.2015 20.696 16.0015 20.696C14.8015 20.696 13.7215 20.936 12.7615 21.416C11.8015 21.896 11.0495 22.568 10.5055 23.432C9.96145 24.296 9.68945 25.312 9.68945 26.48ZM13.4095 26.48C13.4095 25.904 13.5295 25.408 13.7695 24.992C14.0095 24.576 14.3215 24.256 14.7055 24.032C15.0895 23.808 15.5215 23.696 16.0015 23.696C16.4655 23.696 16.8895 23.808 17.2735 24.032C17.6735 24.256 17.9855 24.576 18.2095 24.992C18.4495 25.408 18.5695 25.904 18.5695 26.48C18.5695 27.056 18.4495 27.552 18.2095 27.968C17.9855 28.368 17.6735 28.68 17.2735 28.904C16.8895 29.128 16.4655 29.24 16.0015 29.24C15.5215 29.24 15.0895 29.128 14.7055 28.904C14.3215 28.68 14.0095 28.368 13.7695 27.968C13.5295 27.552 13.4095 27.056 13.4095 26.48Z" fill="#202124"/>
<path d="M23.8457 26.48C23.8457 27.632 24.1177 28.64 24.6617 29.504C25.2057 30.368 25.9577 31.04 26.9177 31.52C27.8777 32 28.9577 32.24 30.1577 32.24C31.3577 32.24 32.4297 32 33.3737 31.52C34.3337 31.04 35.0857 30.368 35.6297 29.504C36.1897 28.64 36.4697 27.632 36.4697 26.48C36.4697 25.312 36.1897 24.296 35.6297 23.432C35.0857 22.568 34.3337 21.896 33.3737 21.416C32.4297 20.936 31.3577 20.696 30.1577 20.696C28.9577 20.696 27.8777 20.936 26.9177 21.416C25.9577 21.896 25.2057 22.568 24.6617 23.432C24.1177 24.296 23.8457 25.312 23.8457 26.48ZM27.5657 26.48C27.5657 25.904 27.6857 25.408 27.9257 24.992C28.1657 24.576 28.4777 24.256 28.8617 24.032C29.2457 23.808 29.6777 23.696 30.1577 23.696C30.6217 23.696 31.0457 23.808 31.4297 24.032C31.8297 24.256 32.1417 24.576 32.3657 24.992C32.6057 25.408 32.7257 25.904 32.7257 26.48C32.7257 27.056 32.6057 27.552 32.3657 27.968C32.1417 28.368 31.8297 28.68 31.4297 28.904C31.0457 29.128 30.6217 29.24 30.1577 29.24C29.6777 29.24 29.2457 29.128 28.8617 28.904C28.4777 28.68 28.1657 28.368 27.9257 27.968C27.6857 27.552 27.5657 27.056 27.5657 26.48Z" fill="#202124"/>
<path d="M42.2507 13.48C42.2507 13.3696 42.1612 13.28 42.0507 13.28H38.8267C38.7163 13.28 38.6267 13.3696 38.6267 13.48V31.8C38.6267 31.9105 38.7163 32 38.8267 32H42.0507C42.1612 32 42.2507 31.9105 42.2507 31.8V13.48ZM51.2747 26.48C51.2747 25.232 51.0187 24.184 50.5067 23.336C50.0107 22.488 49.3627 21.84 48.5627 21.392C47.7787 20.944 46.9307 20.72 46.0187 20.72C45.1067 20.72 44.2907 20.952 43.5707 21.416C42.8507 21.88 42.2827 22.544 41.8667 23.408C41.4507 24.256 41.2427 25.28 41.2427 26.48C41.2427 27.664 41.4507 28.688 41.8667 29.552C42.2827 30.416 42.8507 31.08 43.5707 31.544C44.2907 32.008 45.1067 32.24 46.0187 32.24C46.9307 32.24 47.7787 32.016 48.5627 31.568C49.3627 31.12 50.0107 30.472 50.5067 29.624C51.0187 28.76 51.2747 27.712 51.2747 26.48ZM47.4587 26.48C47.4587 27.056 47.3387 27.56 47.0987 27.992C46.8587 28.408 46.5387 28.736 46.1387 28.976C45.7387 29.2 45.2987 29.312 44.8187 29.312C44.4027 29.312 43.9947 29.2 43.5947 28.976C43.2107 28.752 42.8907 28.432 42.6347 28.016C42.3787 27.584 42.2507 27.072 42.2507 26.48C42.2507 25.888 42.3787 25.384 42.6347 24.968C42.8907 24.536 43.2107 24.208 43.5947 23.984C43.9947 23.76 44.4027 23.648 44.8187 23.648C45.2987 23.648 45.7387 23.768 46.1387 24.008C46.5387 24.232 46.8587 24.56 47.0987 24.992C47.3387 25.408 47.4587 25.904 47.4587 26.48Z" fill="#202124"/>
<path d="M52.4609 30.3679C52.4609 30.9759 52.6769 31.4959 53.1089 31.9279C53.5409 32.3599 54.0769 32.5759 54.7169 32.5759C55.3889 32.5759 55.9329 32.3599 56.3489 31.9279C56.7649 31.4959 56.9729 30.9759 56.9729 30.3679C56.9729 29.7599 56.7649 29.2399 56.3489 28.8079C55.9329 28.3759 55.3889 28.1599 54.7169 28.1599C54.0769 28.1599 53.5409 28.3759 53.1089 28.8079C52.6769 29.2399 52.4609 29.7599 52.4609 30.3679Z" fill="#202124"/>
<path d="M58.907 20.9601C58.7965 20.9601 58.707 21.0497 58.707 21.1601V23.7601C58.707 23.8706 58.7965 23.9601 58.907 23.9601H65.899C66.0094 23.9601 66.099 23.8706 66.099 23.7601V21.1601C66.099 21.0497 66.0094 20.9601 65.899 20.9601H58.907ZM60.851 17.1201C60.7405 17.1201 60.651 17.2097 60.651 17.3201V31.8001C60.651 31.9106 60.7405 32.0001 60.851 32.0001H63.931C64.0415 32.0001 64.131 31.9106 64.131 31.8001V17.3201C64.131 17.2097 64.0415 17.1201 63.931 17.1201H60.851Z" fill="#202124"/>
<path d="M66.9941 26.48C66.9941 27.632 67.2661 28.64 67.8101 29.504C68.3541 30.368 69.1061 31.04 70.0661 31.52C71.0261 32 72.1061 32.24 73.3061 32.24C74.5061 32.24 75.5781 32 76.5221 31.52C77.4821 31.04 78.2341 30.368 78.7781 29.504C79.3381 28.64 79.6181 27.632 79.6181 26.48C79.6181 25.312 79.3381 24.296 78.7781 23.432C78.2341 22.568 77.4821 21.896 76.5221 21.416C75.5781 20.936 74.5061 20.696 73.3061 20.696C72.1061 20.696 71.0261 20.936 70.0661 21.416C69.1061 21.896 68.3541 22.568 67.8101 23.432C67.2661 24.296 66.9941 25.312 66.9941 26.48ZM70.7141 26.48C70.7141 25.904 70.8341 25.408 71.0741 24.992C71.3141 24.576 71.6261 24.256 72.0101 24.032C72.3941 23.808 72.8261 23.696 73.3061 23.696C73.7701 23.696 74.1941 23.808 74.5781 24.032C74.9781 24.256 75.2901 24.576 75.5141 24.992C75.7541 25.408 75.8741 25.904 75.8741 26.48C75.8741 27.056 75.7541 27.552 75.5141 27.968C75.2901 28.368 74.9781 28.68 74.5781 28.904C74.1941 29.128 73.7701 29.24 73.3061 29.24C72.8261 29.24 72.3941 29.128 72.0101 28.904C71.6261 28.68 71.3141 28.368 71.0741 27.968C70.8341 27.552 70.7141 27.056 70.7141 26.48Z" fill="#202124"/>
<path d="M85.1994 37.28C85.3098 37.28 85.3994 37.1905 85.3994 37.08V21.16C85.3994 21.0496 85.3098 20.96 85.1994 20.96H81.9754C81.8649 20.96 81.7754 21.0496 81.7754 21.16V37.08C81.7754 37.1905 81.8649 37.28 81.9754 37.28H85.1994ZM94.4234 26.48C94.4234 25.184 94.1674 24.104 93.6554 23.24C93.1594 22.36 92.5114 21.696 91.7114 21.248C90.9274 20.8 90.0794 20.576 89.1674 20.576C88.2074 20.576 87.3754 20.824 86.6714 21.32C85.9834 21.8 85.4554 22.48 85.0874 23.36C84.7194 24.24 84.5354 25.28 84.5354 26.48C84.5354 27.664 84.7194 28.704 85.0874 29.6C85.4554 30.48 85.9834 31.168 86.6714 31.664C87.3754 32.144 88.2074 32.384 89.1674 32.384C90.0794 32.384 90.9274 32.16 91.7114 31.712C92.5114 31.264 93.1594 30.6 93.6554 29.72C94.1674 28.84 94.4234 27.76 94.4234 26.48ZM90.6074 26.48C90.6074 27.056 90.4874 27.544 90.2474 27.944C90.0074 28.344 89.6874 28.648 89.2874 28.856C88.8874 29.064 88.4474 29.168 87.9674 29.168C87.5514 29.168 87.1434 29.072 86.7434 28.88C86.3594 28.672 86.0394 28.368 85.7834 27.968C85.5274 27.568 85.3994 27.072 85.3994 26.48C85.3994 25.888 85.5274 25.392 85.7834 24.992C86.0394 24.592 86.3594 24.296 86.7434 24.104C87.1434 23.896 87.5514 23.792 87.9674 23.792C88.4474 23.792 88.8874 23.896 89.2874 24.104C89.6874 24.312 90.0074 24.616 90.2474 25.016C90.4874 25.416 90.6074 25.904 90.6074 26.48Z" fill="#202124"/>
<path d="M36.8673 12.0474L23.2673 16.9045C23.137 16.9511 23 16.8545 23 16.7162V13.1409C23 13.0564 23.0531 12.981 23.1327 12.9526L36.7327 8.09545C36.863 8.04894 37 8.14549 37 8.2838V11.8591C37 11.9436 36.9469 12.019 36.8673 12.0474Z" fill="#1967D2"/>
<path d="M36.8673 4.0474L23.2673 8.90455C23.137 8.95107 23 8.85451 23 8.7162V5.14094C23 5.05642 23.0531 4.98102 23.1327 4.9526L36.7327 0.0954542C36.863 0.0489367 37 0.145497 37 0.283803V3.85906C37 3.94358 36.9469 4.01898 36.8673 4.0474Z" fill="#1967D2"/>
<path d="M3.28814 16.808C3.28814 17.384 3.48814 17.856 3.88814 18.224C4.30414 18.592 4.80814 18.776 5.40014 18.776C5.97614 18.776 6.46414 18.592 6.86414 18.224C7.28014 17.856 7.48814 17.384 7.48814 16.808C7.48814 16.232 7.28014 15.768 6.86414 15.416C6.46414 15.048 5.97614 14.864 5.40014 14.864C4.80814 14.864 4.30414 15.048 3.88814 15.416C3.48814 15.768 3.28814 16.232 3.28814 16.808ZM1.41614 33.848L-0.0478592 36.512C0.144141 36.688 0.376141 36.872 0.648141 37.064C0.904141 37.256 1.23214 37.416 1.63214 37.544C2.01614 37.672 2.47214 37.736 3.00014 37.736C3.92814 37.736 4.69614 37.568 5.30414 37.232C5.92814 36.896 6.39214 36.424 6.69614 35.816C7.01614 35.224 7.17614 34.528 7.17614 33.728V20.96H3.67214V32.816C3.67214 33.2 3.63214 33.512 3.55214 33.752C3.47214 33.992 3.34414 34.168 3.16814 34.28C2.99214 34.408 2.77614 34.472 2.52014 34.472C2.29614 34.472 2.09614 34.416 1.92014 34.304C1.72814 34.192 1.56014 34.04 1.41614 33.848Z" fill="#202124"/>
</g>
<defs>
<clipPath id="clip0_488_3262">
<rect width="95" height="38" fill="white"/>
</clipPath>
</defs>
</svg>
