<svg width="28" height="28" viewBox="0 0 28 28" fill="none" xmlns="http://www.w3.org/2000/svg">
<path d="M23.845 8.71223C23.9353 8.27798 23.7177 7.84329 23.3212 7.64446L14.8853 3.4142C14.6032 3.27274 14.2709 3.27274 13.9888 3.41421L5.5443 7.6491C5.15223 7.84572 4.93446 8.27284 5.01834 8.70335C5.415 10.739 6.69691 16.5571 8.88288 19.4798C10.1688 21.1991 12.7801 22.9653 13.8783 23.6661C14.1875 23.8633 14.5783 23.8633 14.8874 23.6661C15.9856 22.9654 18.5968 21.1992 19.8829 19.4798C22.0658 16.5615 23.4196 10.7559 23.845 8.71223Z" fill="#198754"/>
<path fill-rule="evenodd" clip-rule="evenodd" d="M10.6012 12.7844C10.5232 12.8626 10.5233 12.9893 10.6015 13.0673L12.584 15.0446L13.8584 16.3158C13.9366 16.3938 14.0632 16.3936 14.1412 16.3154L15.4124 15.041L18.8022 11.6426C18.8802 11.5644 18.88 11.4377 18.8018 11.3597L17.669 10.2298C17.5908 10.1518 17.4642 10.152 17.3862 10.2302L14.1376 13.487C14.0596 13.5652 13.933 13.5654 13.8548 13.4874L12.014 11.6512C11.9357 11.5732 11.8091 11.5734 11.7311 11.6516L10.6012 12.7844Z" fill="white"/>
</svg>
