<svg width="570" height="456" viewBox="0 0 570 456" fill="none" xmlns="http://www.w3.org/2000/svg">
<path d="M211.438 370.559C20.3296 451.882 13.2138 303.468 5.08154 254.674L60.991 149.971C93.1814 142.855 151.383 92.3489 219.571 48.3176C446.258 -98.0636 363.832 141.619 403.564 144.889C564.176 158.104 677.012 400.039 403.564 370.559C355.009 365.325 260.801 349.554 211.438 370.559Z" stroke="#0066CB" stroke-width="2"/>
<path d="M69.1229 277.038C-49.8121 301.435 15.2465 177.418 51.8418 158.104C66.0734 158.104 120.496 120.866 267.348 60.5162C415.762 -0.47588 444.225 115.409 428.977 177.418C413.729 239.427 368.113 318.759 444.225 344.13C468.622 352.262 372.051 468.147 300.894 448.833C233.468 430.532 155.09 310.009 189.431 255.904C175.004 258.806 140.498 262.397 69.1229 277.038Z" fill="#FFD300"/>
<path d="M51.8428 153.021C51.842 105.558 149.394 -2.91295 237.869 34.0858C306.994 62.9926 272.575 177.682 389.333 172.335C522.499 166.235 543.846 273.988 504.202 326.848C471.721 370.156 396.449 402.072 315.126 353.278C243.968 310.583 163.942 392.339 91.4877 334.98C69.7777 317.794 71.4229 290.888 72.0381 267.316C72.1863 261.639 73.3784 256.038 74.2641 250.429C79.4371 217.672 51.8432 180.172 51.8428 153.021Z" fill="#0066CB"/>
<circle cx="16.2646" cy="132.69" r="16.2646" fill="#0066CB"/>
<circle cx="463.538" cy="100.16" r="16.2646" fill="#FFD300"/>
<circle cx="207.397" cy="431.397" r="24.3969" fill="#FFD300"/>
<circle cx="433.042" cy="425.453" r="10.1654" fill="#0066CB"/>
<circle cx="433.042" cy="43.2345" r="9.66536" stroke="#0066CB"/>
<path d="M123.244 187.812C123.02 187.551 122.722 187.299 122.348 187.056C121.975 186.813 121.555 186.599 121.088 186.412C120.622 186.207 120.108 186.048 119.548 185.936C119.007 185.805 118.438 185.74 117.84 185.74C116.31 185.74 115.18 186.029 114.452 186.608C113.724 187.187 113.36 187.98 113.36 188.988C113.36 189.697 113.547 190.257 113.92 190.668C114.294 191.079 114.863 191.415 115.628 191.676C116.412 191.937 117.402 192.208 118.596 192.488C119.978 192.787 121.172 193.151 122.18 193.58C123.188 194.009 123.963 194.588 124.504 195.316C125.046 196.025 125.316 196.977 125.316 198.172C125.316 199.124 125.13 199.955 124.756 200.664C124.402 201.355 123.898 201.933 123.244 202.4C122.591 202.848 121.826 203.184 120.948 203.408C120.071 203.613 119.119 203.716 118.092 203.716C117.084 203.716 116.095 203.613 115.124 203.408C114.172 203.184 113.267 202.867 112.408 202.456C111.55 202.045 110.747 201.532 110 200.916L111.204 198.788C111.503 199.105 111.886 199.423 112.352 199.74C112.838 200.039 113.379 200.319 113.976 200.58C114.592 200.841 115.255 201.056 115.964 201.224C116.674 201.373 117.402 201.448 118.148 201.448C119.567 201.448 120.668 201.196 121.452 200.692C122.236 200.169 122.628 199.413 122.628 198.424C122.628 197.677 122.404 197.08 121.956 196.632C121.527 196.184 120.883 195.811 120.024 195.512C119.166 195.213 118.12 194.915 116.888 194.616C115.544 194.28 114.415 193.916 113.5 193.524C112.586 193.113 111.895 192.581 111.428 191.928C110.98 191.275 110.756 190.425 110.756 189.38C110.756 188.111 111.064 187.037 111.68 186.16C112.296 185.283 113.146 184.62 114.228 184.172C115.311 183.724 116.534 183.5 117.896 183.5C118.792 183.5 119.623 183.593 120.388 183.78C121.172 183.967 121.9 184.228 122.572 184.564C123.244 184.9 123.86 185.301 124.42 185.768L123.244 187.812ZM142.967 185.88H136.107V203.52H133.587V185.88H126.727V183.64H142.967V185.88ZM149.991 183.64H152.119L160.239 203.52H157.551L155.199 197.696H146.855L144.531 203.52H141.843L149.991 183.64ZM154.639 195.736L151.055 186.552L147.359 195.736H154.639ZM161.461 183.64L167.481 194L173.557 183.64H176.301L168.741 196.268V203.52H166.221V196.212L158.689 183.64H161.461ZM191.391 183.752H193.771L196.403 190.668L199.063 183.752H201.443L197.999 192.404L201.415 200.608L208.135 183.64H210.879L202.563 203.52H200.379L196.431 194.14L192.455 203.52H190.271L181.983 183.64H184.699L191.447 200.608L194.835 192.404L191.391 183.752ZM213.479 203.52V183.64H215.999V203.52H213.479ZM235.088 185.88H228.228V203.52H225.708V185.88H218.848V183.64H235.088V185.88ZM253.939 183.64V203.52H251.419V194.476H240.471V203.52H237.951V183.64H240.471V192.236H251.419V183.64H253.939ZM119.688 236.66C118.102 236.66 116.748 236.399 115.628 235.876C114.527 235.335 113.631 234.597 112.94 233.664C112.268 232.731 111.774 231.676 111.456 230.5C111.139 229.305 110.98 228.064 110.98 226.776V216.64H114.844V226.776C114.844 227.597 114.919 228.4 115.068 229.184C115.236 229.949 115.507 230.64 115.88 231.256C116.254 231.872 116.748 232.357 117.364 232.712C117.98 233.067 118.746 233.244 119.66 233.244C120.594 233.244 121.368 233.067 121.984 232.712C122.619 232.339 123.114 231.844 123.468 231.228C123.842 230.612 124.112 229.921 124.28 229.156C124.448 228.372 124.532 227.579 124.532 226.776V216.64H128.368V226.776C128.368 228.139 128.2 229.417 127.864 230.612C127.547 231.807 127.034 232.861 126.324 233.776C125.634 234.672 124.738 235.381 123.636 235.904C122.535 236.408 121.219 236.66 119.688 236.66ZM134.5 236.52V216.668H138.364V226.104L146.708 216.64H150.964L143.348 225.46L151.44 236.52H147.072L140.884 227.952L138.364 230.584V236.52H134.5ZM155.471 236.52V216.64H164.263C165.178 216.64 166.018 216.827 166.783 217.2C167.567 217.573 168.239 218.077 168.799 218.712C169.378 219.347 169.816 220.056 170.115 220.84C170.432 221.624 170.591 222.427 170.591 223.248C170.591 224.088 170.442 224.9 170.143 225.684C169.863 226.449 169.452 227.121 168.911 227.7C168.37 228.279 167.735 228.727 167.007 229.044L171.543 236.52H167.287L163.199 229.856H159.335V236.52H155.471ZM159.335 226.468H164.179C164.664 226.468 165.094 226.328 165.467 226.048C165.84 225.749 166.139 225.357 166.363 224.872C166.587 224.387 166.699 223.845 166.699 223.248C166.699 222.613 166.568 222.063 166.307 221.596C166.046 221.111 165.71 220.728 165.299 220.448C164.907 220.168 164.478 220.028 164.011 220.028H159.335V226.468ZM181.736 216.64H185.656L192.964 236.52H188.988L187.14 231.564H180.196L178.376 236.52H174.4L181.736 216.64ZM186.44 228.848L183.696 220.644L180.84 228.848H186.44ZM197.385 236.52V216.64H201.249V236.52H197.385ZM211.5 223.752V236.52H207.636V216.64H210.716L220.992 229.744V216.668H224.856V236.52H221.636L211.5 223.752ZM245.036 233.132V236.52H231.232V216.64H244.784V220.028H235.096V224.816H243.468V227.952H235.096V233.132H245.036ZM250.652 229.044V216.444H254.404V229.044H250.652ZM250.652 236.52V232.292H254.404V236.52H250.652Z" fill="white"/>
<path d="M230.724 305.071C323.673 309.287 311.098 262.625 360.985 259.299C364.8 259.045 368.199 261.159 363.782 263.368C359.205 265.656 353.2 262.961 349.288 260.57C344.711 257.773 354.28 255.61 352.848 255.993C330.979 261.842 346.745 251.925 344.457 252.433C322.079 257.406 337.337 249.636 338.354 247.602C339.271 245.768 320.945 251.245 322.842 249.127C333.777 236.922 357.171 236.667 374.208 244.55C391.56 252.579 404.214 223.699 418.963 243.279C420.289 245.04 412.351 232.599 389.435 270.742C376.242 286.508 361.494 304.562 357.171 306.342C352.095 308.432 370.394 283.202 365.308 287.271C360.222 291.339 348.779 307.105 342.677 306.342C339.371 305.929 363.274 280.913 358.951 283.711C354.235 286.762 343.948 296.933 342.168 296.933C337.5 296.933 356.16 282.272 355.137 281.931C353.611 281.422 348.779 286.508 345.982 285.236C344.518 284.571 365.308 261.079 383.617 274.048C389.559 278.257 396.331 293.373 405.231 296.425C407.266 297.122 404.723 289.305 406.503 289.813C408.283 290.322 411.108 301.082 413.114 300.748C414.64 300.494 412.606 292.865 414.131 293.628C414.64 293.882 417.29 304.017 421.506 305.071C423.54 305.579 422.631 284.51 417.691 285.745C415.657 286.253 419.588 305.579 428.371 305.579C430.66 305.579 420.997 260.57 399.891 257.773C391.816 256.703 418.735 274.048 443.56 247.602" stroke="white" stroke-width="1.5"/>
<path d="M417.183 250.678C417.674 246.499 419.32 242.203 421.76 238.358M431.077 230.081C433.711 224.995 437.659 224.878 439.051 227.029C441.848 231.352 430.985 232.369 431.077 230.081ZM431.077 230.081C430.41 230.693 429.007 231.637 428.22 232.369M428.117 232.624C425.238 230.928 422.909 225.706 426.337 225.249C430.151 224.741 428.366 232.337 428.117 232.624ZM428.117 232.624C427.961 232.802 427.8 232.971 427.637 233.132M428.117 232.624C428.271 232.448 428.036 232.54 428.22 232.369M422.014 237.964C419.98 237.709 416.674 231.098 420.488 230.081C425.234 228.815 423.54 236.438 422.014 237.964ZM422.014 237.964C421.928 238.095 421.844 238.226 421.76 238.358M422.014 237.964C423.869 235.645 425.941 234.801 427.637 233.132M421.76 238.358C423.031 242.032 427.354 242.795 428.88 241.269C431.221 238.928 425.066 235.421 421.76 238.358ZM427.637 233.132C429.407 236.014 432.694 238.472 433.966 236.947C436.313 234.129 430.339 232.373 428.22 232.369" stroke="white" stroke-width="1.5"/>
</svg>
