<svg width="28" height="28" viewBox="0 0 28 28" fill="none" xmlns="http://www.w3.org/2000/svg">
<path d="M26.75 13.2917C26.7549 15.1615 26.318 17.006 25.475 18.675C24.4754 20.675 22.9388 22.3572 21.0372 23.5332C19.1356 24.7092 16.9442 25.3325 14.7083 25.3334C12.8385 25.3382 10.994 24.9014 9.325 24.0584L1.25 26.75L3.94167 18.675C3.09865 17.006 2.66179 15.1615 2.66667 13.2917C2.66753 11.0559 3.29087 8.86441 4.46685 6.96282C5.64284 5.06123 7.32503 3.52459 9.325 2.52504C10.994 1.68203 12.8385 1.24517 14.7083 1.25004H15.4167C18.3695 1.41295 21.1585 2.65929 23.2496 4.75042C25.3408 6.84156 26.5871 9.63055 26.75 12.5834V13.2917Z" stroke="#1967D2" stroke-width="2" stroke-linecap="round" stroke-linejoin="round"/>
</svg>
