<svg width="35" height="40" viewBox="0 0 35 40" fill="none" xmlns="http://www.w3.org/2000/svg">
<path d="M34.3333 31.29C33.9958 30.5845 33.5117 29.9592 32.9133 29.4557C32.3149 28.9522 31.6161 28.582 30.8633 28.37L23.9333 27C22.7033 26.62 21.3333 25.25 21.3333 24V21.78C22.5908 20.9145 23.6143 19.751 24.3124 18.3933C25.0104 17.0357 25.3611 15.5263 25.3333 14V13.84C25.3333 11.67 25.3333 9.60998 24.2533 8.00998L30.0433 5.46998C30.1317 5.42776 30.206 5.36098 30.2574 5.27763C30.3089 5.19429 30.3352 5.0979 30.3333 4.99998C30.325 4.89617 30.285 4.7974 30.2189 4.71695C30.1527 4.63651 30.0636 4.57824 29.9633 4.54998L17.4833 0.999983C17.3944 0.980149 17.3022 0.980149 17.2133 0.999983L4.69331 4.50998C4.58596 4.53754 4.49145 4.6014 4.42583 4.69071C4.36021 4.78003 4.32752 4.8893 4.33331 4.99998C4.32538 5.10288 4.34886 5.20576 4.40064 5.29503C4.45242 5.38431 4.53006 5.45577 4.62331 5.49998L5.33331 5.80998V8.13998C4.98786 8.21475 4.67166 8.38849 4.42331 8.63998C4.05969 9.001 3.8485 9.48781 3.83331 9.99998C3.8331 10.2639 3.88513 10.5252 3.98639 10.769C4.08765 11.0127 4.23614 11.2339 4.42331 11.42C4.67619 11.6675 4.9902 11.8435 5.33331 11.93V14C5.2007 14 5.07353 14.0527 4.97976 14.1464C4.88599 14.2402 4.83331 14.3674 4.83331 14.5V18.5C4.83331 18.6326 4.88599 18.7598 4.97976 18.8535C5.07353 18.9473 5.2007 19 5.33331 19H6.33331C6.46592 19 6.5931 18.9473 6.68686 18.8535C6.78063 18.7598 6.83331 18.6326 6.83331 18.5V14.5C6.83331 14.3674 6.78063 14.2402 6.68686 14.1464C6.5931 14.0527 6.46592 14 6.33331 14V11.93C6.67828 11.8408 6.99488 11.6653 7.25331 11.42C7.43926 11.2342 7.58678 11.0137 7.68743 10.7709C7.78808 10.5281 7.83988 10.2678 7.83988 10.005C7.83988 9.74215 7.78808 9.4819 7.68743 9.2391C7.58678 8.99631 7.43926 8.77573 7.25331 8.58998C6.99953 8.34044 6.68076 8.16719 6.33331 8.08998V6.19998L10.4133 7.99998C9.33331 9.59998 9.33331 11.67 9.33331 13.84V14C9.30549 15.5263 9.65625 17.0357 10.3543 18.3933C11.0523 19.751 12.0758 20.9145 13.3333 21.78V24C13.3333 25.26 11.9233 26.65 10.7033 27L3.84331 28.35C3.09185 28.5621 2.39439 28.9324 1.79766 29.436C1.20093 29.9396 0.718714 30.5649 0.383311 31.27C0.354637 31.3297 0.3381 31.3944 0.33466 31.4606C0.33122 31.5267 0.340945 31.5928 0.363272 31.6551C0.385599 31.7175 0.420083 31.7748 0.464722 31.8236C0.509362 31.8725 0.563267 31.9121 0.623311 31.94C0.6845 31.974 0.752039 31.9951 0.821723 32.0019C0.891407 32.0087 0.961743 32.001 1.02835 31.9794C1.09495 31.9579 1.1564 31.9228 1.20887 31.8765C1.26134 31.8301 1.3037 31.7734 1.33331 31.71C1.60146 31.1481 1.98352 30.6482 2.45522 30.2419C2.92691 29.8357 3.47794 29.5319 4.07331 29.35L6.33331 28.9V37.5C6.33331 37.6326 6.38599 37.7598 6.47976 37.8535C6.57353 37.9473 6.7007 38 6.83331 38C6.96592 38 7.0931 37.9473 7.18686 37.8535C7.28063 37.7598 7.33331 37.6326 7.33331 37.5V28.7L10.3333 28.11V39.5C10.3333 39.6326 10.386 39.7598 10.4798 39.8535C10.5735 39.9473 10.7007 40 10.8333 40C10.9659 40 11.0931 39.9473 11.1869 39.8535C11.2806 39.7598 11.3333 39.6326 11.3333 39.5V30.86C13.0265 32.2442 15.1463 33.0003 17.3333 33.0003C19.5203 33.0003 21.6401 32.2442 23.3333 30.86V39.5C23.3333 39.6326 23.386 39.7598 23.4798 39.8535C23.5735 39.9473 23.7007 40 23.8333 40C23.9659 40 24.0931 39.9473 24.1869 39.8535C24.2806 39.7598 24.3333 39.6326 24.3333 39.5V28.11L27.3333 28.7V37.5C27.3333 37.6326 27.386 37.7598 27.4798 37.8535C27.5735 37.9473 27.7007 38 27.8333 38C27.9659 38 28.0931 37.9473 28.1869 37.8535C28.2806 37.7598 28.3333 37.6326 28.3333 37.5V28.9L30.6333 29.35C31.2292 29.5334 31.7809 29.8377 32.254 30.2437C32.7271 30.6497 33.1115 31.1489 33.3833 31.71C33.4379 31.8305 33.538 31.9245 33.6617 31.9713C33.7854 32.0182 33.9226 32.0141 34.0433 31.96C34.1069 31.9357 34.1649 31.899 34.2141 31.852C34.2632 31.8049 34.3025 31.7485 34.3295 31.6861C34.3565 31.6237 34.3708 31.5565 34.3714 31.4884C34.3721 31.4204 34.3591 31.3529 34.3333 31.29ZM6.58331 9.28998C6.67704 9.38295 6.75143 9.49355 6.8022 9.61541C6.85297 9.73727 6.87911 9.86797 6.87911 9.99998C6.87911 10.132 6.85297 10.2627 6.8022 10.3846C6.75143 10.5064 6.67704 10.617 6.58331 10.71C6.44313 10.849 6.26494 10.9434 6.07118 10.9814C5.87743 11.0193 5.67678 10.999 5.49453 10.9231C5.31228 10.8471 5.15659 10.719 5.04707 10.5547C4.93755 10.3904 4.87911 10.1974 4.87911 9.99998C4.87911 9.80255 4.93755 9.60954 5.04707 9.44527C5.15659 9.28099 5.31228 9.15282 5.49453 9.07689C5.67678 9.00096 5.87743 8.98068 6.07118 9.0186C6.26494 9.05653 6.44313 9.15095 6.58331 9.28998ZM6.33331 5.09998L17.3333 1.99998L28.3333 5.11998L17.3333 9.99998L6.33331 5.09998ZM11.3333 8.41998L17.1233 11C17.1892 11.0147 17.2575 11.0147 17.3233 11C17.3896 11.0103 17.457 11.0103 17.5233 11L23.3333 8.41998C23.9111 9.27697 24.2399 10.2774 24.2833 11.31C21.7933 9.83998 18.3633 11.73 17.3533 12.31C16.3533 11.69 12.9133 9.79998 10.4233 11.31C10.4485 10.2802 10.7639 9.27841 11.3333 8.41998ZM10.3333 14V13.84C10.3333 13.35 10.3333 12.89 10.3333 12.44C10.4383 12.4393 10.5402 12.4041 10.6233 12.34C12.9333 10.58 17.0033 13.34 17.0433 13.34C17.1249 13.3986 17.2228 13.4301 17.3233 13.4301C17.4238 13.4301 17.5217 13.3986 17.6033 13.34C17.6033 13.34 21.7133 10.57 24.0233 12.34C24.108 12.4012 24.2089 12.436 24.3133 12.44C24.3133 12.89 24.3133 13.35 24.3133 13.84V14C24.3133 18.41 21.1733 22 17.3133 22C13.4533 22 10.3333 18.41 10.3333 14ZM14.3333 24V22.34C15.2737 22.7747 16.2973 22.9998 17.3333 22.9998C18.3693 22.9998 19.3929 22.7747 20.3333 22.34V24C20.4209 24.8106 20.7215 25.5836 21.2045 26.2405C21.6875 26.8973 22.3357 27.4147 23.0833 27.74C21.516 29.1827 19.4636 29.9836 17.3333 29.9836C15.203 29.9836 13.1506 29.1827 11.5833 27.74C12.3297 27.413 12.9769 26.8952 13.4597 26.2386C13.9424 25.5821 14.2437 24.81 14.3333 24ZM23.3333 29.56L23.2133 29.64C21.6298 31.1535 19.5238 31.9981 17.3333 31.9981C15.1429 31.9981 13.0368 31.1535 11.4533 29.64L11.3333 29.56V28.86C13.0265 30.2442 15.1463 31.0003 17.3333 31.0003C19.5203 31.0003 21.6401 30.2442 23.3333 28.86V29.56Z" fill="white"/>
</svg>
