<svg width="36" height="40" viewBox="0 0 36 40" fill="none" xmlns="http://www.w3.org/2000/svg">
<path d="M20 37.5V39.5C20 39.6326 19.9473 39.7598 19.8536 39.8536C19.7598 39.9473 19.6326 40 19.5 40C19.3674 40 19.2402 39.9473 19.1464 39.8536C19.0527 39.7598 19 39.6326 19 39.5V37.5C19 37.3674 19.0527 37.2402 19.1464 37.1464C19.2402 37.0527 19.3674 37 19.5 37C19.6326 37 19.7598 37.0527 19.8536 37.1464C19.9473 37.2402 20 37.3674 20 37.5ZM26.67 34.93C26.6935 35.1852 26.6428 35.4418 26.524 35.6689C26.4051 35.896 26.2231 36.0839 26 36.21C25.5336 36.5339 25.0005 36.7492 24.44 36.84C24.1922 36.8831 23.9415 36.9065 23.69 36.91C23.3788 36.9096 23.0691 36.8659 22.77 36.78C22.6661 36.7504 22.5656 36.7102 22.47 36.66C22.56 37.33 22.19 38.17 21.3 39.31C21.251 39.3686 21.1898 39.416 21.1208 39.4488C21.0518 39.4816 20.9764 39.499 20.9 39.5C20.7917 39.5007 20.6862 39.4656 20.6 39.4C20.4948 39.3172 20.4264 39.1963 20.4096 39.0634C20.3927 38.9306 20.4288 38.7965 20.51 38.69C21.51 37.35 21.51 36.84 21.46 36.69C21.41 36.54 21.08 36.37 20.6 36.3C19.6076 36.2889 18.635 36.5783 17.81 37.13C17.8627 37.1763 17.9051 37.2332 17.9344 37.2969C17.9637 37.3607 17.9792 37.4299 17.98 37.5V38.5C17.98 38.6326 17.9273 38.7598 17.8336 38.8536C17.7398 38.9473 17.6126 39 17.48 39C17.3474 39 17.2202 38.9473 17.1264 38.8536C17.0327 38.7598 16.98 38.6326 16.98 38.5V37.64C16.66 37.84 16.33 38.07 15.98 38.33V39.5C15.98 39.6326 15.9273 39.7598 15.8336 39.8536C15.7398 39.9473 15.6126 40 15.48 40C15.3474 40 15.2202 39.9473 15.1264 39.8536C15.0327 39.7598 14.98 39.6326 14.98 39.5V38.15V38.06C14.8727 37.2134 14.4598 36.4351 13.8189 35.8716C13.1781 35.3081 12.3534 34.9981 11.5 35C11.2169 35.0068 10.9353 35.0437 10.66 35.11C10.6689 35.1931 10.6689 35.2769 10.66 35.36C10.66 36.17 9.66 36.79 8.38 36.85C8.17943 37.2263 8.05058 37.6366 8 38.06C7.98526 38.182 7.92614 38.2942 7.83393 38.3754C7.74171 38.4565 7.62284 38.5009 7.5 38.5H7.44C7.3088 38.4826 7.18987 38.4138 7.10927 38.3089C7.02866 38.2039 6.99297 38.0712 7.01 37.94C7.06321 37.5394 7.17437 37.1486 7.34 36.78C6.34 36.58 5.67 36.04 5.67 35.36C5.67 34.51 6.75 33.86 8.17 33.86C8.78642 33.8443 9.39633 33.9891 9.94 34.28C10.4388 34.0932 10.9674 33.9984 11.5 34C12.4462 34.0007 13.3682 34.2997 14.1347 34.8544C14.9013 35.4092 15.4735 36.1914 15.77 37.09C15.8113 37.1179 15.8483 37.1516 15.88 37.19C17.88 35.76 19.53 35.19 20.76 35.31H20.89C20.7773 35.0952 20.706 34.8612 20.68 34.62C20.6338 34.0696 20.7124 33.5158 20.91 33C21.4 31.66 22.37 30.87 23.18 31.16C23.99 31.45 24.18 32.64 23.75 33.95L23.94 33.89C24.4977 33.7876 25.071 33.8081 25.62 33.95C25.869 33.9991 26.0994 34.1169 26.2849 34.2901C26.4705 34.4633 26.6039 34.6849 26.67 34.93ZM9.67 35.36C9.67 35.24 9.14 34.86 8.17 34.86C7.2 34.86 6.67 35.24 6.67 35.36C6.67 35.48 7.21 35.86 8.17 35.86C9.13 35.86 9.7 35.49 9.7 35.36H9.67ZM22.76 33.67C23.09 32.76 22.92 32.14 22.76 32.09C22.61 32.09 22.11 32.47 21.76 33.33C21.6139 33.7123 21.5525 34.1217 21.58 34.53C21.58 34.82 21.7 34.91 21.72 34.91C21.74 34.91 21.88 34.91 22.07 34.71C22.3876 34.424 22.6341 34.0679 22.79 33.67H22.76ZM25.65 35.1C25.65 35.1 25.55 34.97 25.3 34.9C25.0956 34.84 24.8829 34.8129 24.67 34.82C24.4772 34.8002 24.2828 34.8002 24.09 34.82C23.6855 34.8817 23.2997 35.032 22.96 35.26C22.9129 35.292 22.8693 35.3289 22.83 35.37C22.73 35.47 22.71 35.54 22.72 35.55C22.73 35.56 22.82 35.68 23.07 35.75C23.4678 35.84 23.8794 35.8501 24.2811 35.7797C24.6828 35.7093 25.0665 35.5599 25.41 35.34C25.65 35.24 25.68 35.12 25.68 35.1H25.65ZM36 21.37V24.5C36 24.6326 35.9473 24.7598 35.8536 24.8536C35.7598 24.9473 35.6326 25 35.5 25H33V30.5C33.016 30.5725 33.016 30.6475 33 30.72L32 32.64V33C32 33.1326 31.9473 33.2598 31.8536 33.3536C31.7598 33.4473 31.6326 33.5 31.5 33.5C31.3674 33.5 31.2402 33.4473 31.1464 33.3536C31.0527 33.2598 31 33.1326 31 33V32.39C30.9364 30.7099 30.2893 29.1045 29.17 27.85C28.5172 27.2741 27.7867 26.7928 27 26.42V31.07C28 31.32 29 32.29 29 33V35.5C29 35.6326 28.9473 35.7598 28.8536 35.8536C28.7598 35.9473 28.6326 36 28.5 36C28.3674 36 28.2402 35.9473 28.1464 35.8536C28.0527 35.7598 28 35.6326 28 35.5V33C27.8553 32.7198 27.6416 32.4811 27.3792 32.3061C27.1169 32.1312 26.8143 32.0259 26.5 32C26.3674 32 26.2402 31.9473 26.1464 31.8536C26.0527 31.7598 26 31.6326 26 31.5V26C26 26 26 26 26 25.93C25 25.46 23.9 25.04 23 24.71L22.37 29.07C22.2506 29.8803 21.8452 30.6211 21.2271 31.1585C20.609 31.6959 19.819 31.9944 19 32H13C12.1792 31.9968 11.3868 31.6994 10.7667 31.1618C10.1465 30.6242 9.73964 29.882 9.62 29.07L9 24.71C8.06 25.04 7 25.46 6 25.93C6 25.93 6 25.98 6 26V31.5C6 31.6326 5.94732 31.7598 5.85355 31.8536C5.75979 31.9473 5.63261 32 5.5 32C5.18622 32.0277 4.88442 32.1337 4.62232 32.3085C4.36022 32.4832 4.14623 32.721 4 33V35.5C4 35.6326 3.94732 35.7598 3.85355 35.8536C3.75979 35.9473 3.63261 36 3.5 36C3.36739 36 3.24021 35.9473 3.14645 35.8536C3.05268 35.7598 3 35.6326 3 35.5V33C3 32.29 4 31.32 5 31.07V26.42C4.22032 26.7944 3.49669 27.2757 2.85 27.85C1.72342 29.1017 1.06912 30.7074 1 32.39V33C1 33.1326 0.947322 33.2598 0.853554 33.3536C0.759786 33.4473 0.632608 33.5 0.5 33.5C0.367392 33.5 0.240214 33.4473 0.146446 33.3536C0.052678 33.2598 0 33.1326 0 33V32.27C0.0955115 30.3681 0.848378 28.5584 2.13 27.15C4 25.3 9.21 23.47 11 23.08V20C9.7263 18.8329 8.8107 17.3277 8.36 15.66C5 14.36 3 12.27 3 10C3 7.41 5.5 5.19 9.3 4C9.25934 3.6233 9.30087 3.24227 9.42172 2.88317C9.54257 2.52408 9.73986 2.19547 10 1.92C11.24 0.51 13.91 0 16 0C18.09 0 20.76 0.51 22 1.92C22.2607 2.19509 22.4584 2.52365 22.5792 2.88285C22.7001 3.24205 22.7413 3.62327 22.7 4C24.4677 4.50737 26.0937 5.41791 27.45 6.66C27.5229 6.73014 27.5781 6.81655 27.6111 6.91216C27.6441 7.00776 27.654 7.10983 27.64 7.21C27.64 7.58 27.25 7.79 26.88 8L27.27 8.1C28.27 8.33 28.71 8.45 28.83 8.87C28.9405 9.23659 28.9977 9.61714 29 10C29 12.27 27 14.36 23.64 15.67C23.1876 17.3341 22.2721 18.8356 21 20V23.07C22.79 23.46 28 25.29 29.85 27.14C30.3154 27.6018 30.7036 28.1352 31 28.72V25H28.5C28.3674 25 28.2402 24.9473 28.1464 24.8536C28.0527 24.7598 28 24.6326 28 24.5V21.37C28 17.71 29.38 14 32 14C34.62 14 36 17.71 36 21.37ZM10.29 3.7C14.0378 2.75352 17.9622 2.75352 21.71 3.7C21.7126 3.27806 21.5554 2.87077 21.27 2.56C20.24 1.42 17.79 1 16 1C14.21 1 11.77 1.42 10.73 2.58C10.445 2.88299 10.2874 3.28402 10.29 3.7ZM8 13V11C7.95529 9.78984 8.36964 8.6075 9.16 7.69C10.41 6.45 12.4 6.47 14.92 6.49H17.02C19.54 6.49 21.54 6.49 22.79 7.69C23.595 8.60207 24.027 9.78381 24 11V13C23.9956 13.5022 23.9555 14.0035 23.88 14.5C26.48 13.35 28 11.72 28 10C27.9981 9.7645 27.9713 9.52986 27.92 9.3C27.6285 9.2019 27.3313 9.12175 27.03 9.06C26.12 8.83 25.74 8.73 25.57 8.42C25.21 7.78 25.94 7.37 26.34 7.15L26.45 7.08C24.3 5.17 20.35 4 16 4C9.5 4 4 6.75 4 10C4 11.72 5.52 13.35 8.12 14.5C8.04448 14.0035 8.00438 13.5022 8 13ZM16 21C19.86 21 23 17.41 23 13V11.5C23.12 10.3901 22.8005 9.27725 22.11 8.4C21.16 7.46 19.35 7.48 17.06 7.49H14.94C12.65 7.49 10.84 7.49 9.89 8.4C9.19948 9.27725 8.88 10.3901 9 11.5V13C9 17.41 12.14 21 16 21ZM16 22C14.5777 21.9922 13.1882 21.5719 12 20.79V23.38L13.5 26.32C14.2283 26.8317 15.1128 27.0723 16 27C16.8873 27.074 17.7724 26.8333 18.5 26.32L20 23.38V20.79C18.8118 21.5719 17.4223 21.9922 16 22ZM22 24.39C21.47 24.23 21 24.11 20.76 24.05L19.3 26.92C18.8533 27.3165 18.3298 27.6169 17.7621 27.8027C17.1945 27.9885 16.5947 28.0556 16 28C15.4053 28.055 14.8057 27.9876 14.2381 27.8018C13.6706 27.6161 13.1471 27.316 12.7 26.92L12.64 26.83L11.22 24.05C10.94 24.11 10.52 24.23 9.98 24.39L10.62 28.89C10.6969 29.469 10.9798 30.001 11.4168 30.3885C11.8539 30.776 12.4159 30.9931 13 31H19C19.5804 30.9989 20.1411 30.7893 20.5798 30.4093C21.0185 30.0293 21.3061 29.5043 21.39 28.93L22.04 24.43C22.04 24.43 22 24.41 22 24.39ZM35 21.39C35 18.24 33.88 15 32 15C30.12 15 29 18.24 29 21.37V24H31.5V18.94C31.5 18.8074 31.5527 18.6802 31.6464 18.5864C31.7402 18.4927 31.8674 18.44 32 18.44C32.1326 18.44 32.2598 18.4927 32.3536 18.5864C32.4473 18.6802 32.5 18.8074 32.5 18.94V24H35V21.39Z" fill="white"/>
</svg>
